{
  "terminals": [
    "S",
    "A",
    "B",
    "C"
  ],
  "rules": {
    "S": {
      "a": "aABC"
    },
    "A": {
      "a": "aA",
      "#": "#"
    },
    "B": {
      "b": "bB",
      "#": "#"
    },
    "C": {
      "c": "cC",
      "#": "#"
    }
  },
  "alphabet": ["a", "b", "c", "#"]
}